<svg xmlns="http://www.w3.org/2000/svg" fill="currentColor" class="bi bi-x-lg" viewBox="0 0 16 16">
  <path stroke="currentColor" stroke-width="1" fill-rule="evenodd" d="M13.854 2.146a.5.5 0 0 1 0 .708l-11 11a.5.5 0 0 1-.708-.708l11-11a.5.5 0 0 1 .708 0Z"/>
  <path stroke="currentColor" stroke-width="1" fill-rule="evenodd" d="M2.146 2.146a.5.5 0 0 0 0 .708l11 11a.5.5 0 0 0 .708-.708l-11-11a.5.5 0 0 0-.708 0Z"/>
</svg>